{
  "total_count": 230,
  "count": 50,
  "offset": 0,
  "next_offset": 50,
  "previous_offset": null,
  "hits": [
    {
      "study_id": "132011042",
      "program_name": "Bioinformatik",
      "program_name_en": "Bioinformatics",
      "degree_program_name": "Dipl. Bioinformatik",
      "degree_program_name_en": "Dipl. Bioinformatics",
      "school": {
        "org_id": 14189,
        "org_code": "TUINFIN",
        "org_name": "Ehemalige Fakultät für Informatik",
        "org_name_en": "Former TUM Department of Informatics",
        "org_url": "https://www.in.tum.de/",
        "org_type": "Fakultät",
        "org_nameshort": null,
        "org_nameshort_en": null,
        "org_email": null,
        "deleted": null,
        "tumonline_url": "https://campus.tum.de/tumonline/wborg.display?PORGNR=14189"
      },
      "program_short": null,
      "program_url": null,
      "program_url_en": null,
      "degree": {
        "degree_id": 11,
        "degree_name": "Diplom Universität",
        "degree_name_en": "University Diploma",
        "degree_short": "Dipl.",
        "degree_type_id": 11,
        "degree_type_name": "Diplom Universität",
        "degree_type_short": "Dipl."
      },
      "org_id": 14189,
      "spo_version": "0"
    },
    {
      "study_id": "132011042",
      "program_name": "Bioinformatik",
      "program_name_en": "Bioinformatics",
      "degree_program_name": "Dipl. Bioinformatik",
      "degree_program_name_en": "Dipl. Bioinformatics",
      "school": {
        "org_id": 14189,
        "org_code": "TUINFIN",
        "org_name": "Ehemalige Fakultät für Informatik",
        "org_name_en": "Former TUM Department of Informatics",
        "org_url": "https://www.in.tum.de/",
        "org_type": "Fakultät",
        "org_nameshort": null,
        "org_nameshort_en": null,
        "org_email": null,
        "deleted": null,
        "tumonline_url": "https://campus.tum.de/tumonline/wborg.display?PORGNR=14189"
      },
      "program_short": null,
      "program_url": null,
      "program_url_en": null,
      "degree": {
        "degree_id": 11,
        "degree_name": "Diplom Universität",
        "degree_name_en": "University Diploma",
        "degree_short": "Dipl.",
        "degree_type_id": 11,
        "degree_type_name": "Diplom Universität",
        "degree_type_short": "Dipl."
      },
      "org_id": 14189,
      "spo_version": "20001"
    },
    {
      "study_id": "132016042",
      "program_name": "Bioinformatik",
      "program_name_en": "Bioinformatics",
      "degree_program_name": "M.Sc. Bioinformatik",
      "degree_program_name_en": "M.Sc. Bioinformatics",
      "school": {
        "org_id": 51897,
        "org_code": "TUS1000",
        "org_name": "TUM School of Computation, Information and Technology",
        "org_name_en": "TUM School of Computation, Information and Technology",
        "org_url": "https://www.cit.tum.de/",
        "org_type": "TUM School",
        "org_nameshort": "CIT",
        "org_nameshort_en": "CIT",
        "org_email": "info@cit.tum.de",
        "deleted": null,
        "tumonline_url": "https://campus.tum.de/tumonline/wborg.display?PORGNR=51897"
      },
      "program_short": null,
      "program_url": null,
      "program_url_en": null,
      "degree": {
        "degree_id": 16,
        "degree_name": "Master of Science",
        "degree_name_en": "Master of Science",
        "degree_short": "M.Sc.",
        "degree_type_id": 16,
        "degree_type_name": "Master of Science",
        "degree_type_short": "M.Sc."
      },
      "org_id": 53666,
      "spo_version": "20071"
    },
    {
      "study_id": "132016042",
      "program_name": "Bioinformatik",
      "program_name_en": "Bioinformatics",
      "degree_program_name": "M.Sc. Bioinformatik",
      "degree_program_name_en": "M.Sc. Bioinformatics",
      "school": {
        "org_id": 51897,
        "org_code": "TUS1000",
        "org_name": "TUM School of Computation, Information and Technology",
        "org_name_en": "TUM School of Computation, Information and Technology",
        "org_url": "https://www.cit.tum.de/",
        "org_type": "TUM School",
        "org_nameshort": "CIT",
        "org_nameshort_en": "CIT",
        "org_email": "info@cit.tum.de",
        "deleted": null,
        "tumonline_url": "https://campus.tum.de/tumonline/wborg.display?PORGNR=51897"
      },
      "program_short": null,
      "program_url": null,
      "program_url_en": null,
      "degree": {
        "degree_id": 16,
        "degree_name": "Master of Science",
        "degree_name_en": "Master of Science",
        "degree_short": "M.Sc.",
        "degree_type_id": 16,
        "degree_type_name": "Master of Science",
        "degree_type_short": "M.Sc."
      },
      "org_id": 53666,
      "spo_version": "20131"
    },
    {
      "study_id": "132016042",
      "program_name": "Bioinformatik",
      "program_name_en": "Bioinformatics",
      "degree_program_name": "M.Sc. Bioinformatik",
      "degree_program_name_en": "M.Sc. Bioinformatics",
      "school": {
        "org_id": 51897,
        "org_code": "TUS1000",
        "org_name": "TUM School of Computation, Information and Technology",
        "org_name_en": "TUM School of Computation, Information and Technology",
        "org_url": "https://www.cit.tum.de/",
        "org_type": "TUM School",
        "org_nameshort": "CIT",
        "org_nameshort_en": "CIT",
        "org_email": "info@cit.tum.de",
        "deleted": null,
        "tumonline_url": "https://campus.tum.de/tumonline/wborg.display?PORGNR=51897"
      },
      "program_short": null,
      "program_url": null,
      "program_url_en": null,
      "degree": {
        "degree_id": 16,
        "degree_name": "Master of Science",
        "degree_name_en": "Master of Science",
        "degree_short": "M.Sc.",
        "degree_type_id": 16,
        "degree_type_name": "Master of Science",
        "degree_type_short": "M.Sc."
      },
      "org_id": 53666,
      "spo_version": "20161"
    },
    {
      "study_id": "132016042",
      "program_name": "Bioinformatik",
      "program_name_en": "Bioinformatics",
      "degree_program_name": "M.Sc. Bioinformatik",
      "degree_program_name_en": "M.Sc. Bioinformatics",
      "school": {
        "org_id": 51897,
        "org_code": "TUS1000",
        "org_name": "TUM School of Computation, Information and Technology",
        "org_name_en": "TUM School of Computation, Information and Technology",
        "org_url": "https://www.cit.tum.de/",
        "org_type": "TUM School",
        "org_nameshort": "CIT",
        "org_nameshort_en": "CIT",
        "org_email": "info@cit.tum.de",
        "deleted": null,
        "tumonline_url": "https://campus.tum.de/tumonline/wborg.display?PORGNR=51897"
      },
      "program_short": null,
      "program_url": null,
      "program_url_en": null,
      "degree": {
        "degree_id": 16,
        "degree_name": "Master of Science",
        "degree_name_en": "Master of Science",
        "degree_short": "M.Sc.",
        "degree_type_id": 16,
        "degree_type_name": "Master of Science",
        "degree_type_short": "M.Sc."
      },
      "org_id": 53666,
      "spo_version": "20211"
    },
    {
      "study_id": "132016042",
      "program_name": "Bioinformatik",
      "program_name_en": "Bioinformatics",
      "degree_program_name": "M.Sc. Bioinformatik",
      "degree_program_name_en": "M.Sc. Bioinformatics",
      "school": {
        "org_id": 51897,
        "org_code": "TUS1000",
        "org_name": "TUM School of Computation, Information and Technology",
        "org_name_en": "TUM School of Computation, Information and Technology",
        "org_url": "https://www.cit.tum.de/",
        "org_type": "TUM School",
        "org_nameshort": "CIT",
        "org_nameshort_en": "CIT",
        "org_email": "info@cit.tum.de",
        "deleted": null,
        "tumonline_url": "https://campus.tum.de/tumonline/wborg.display?PORGNR=51897"
      },
      "program_short": null,
      "program_url": null,
      "program_url_en": null,
      "degree": {
        "degree_id": 16,
        "degree_name": "Master of Science",
        "degree_name_en": "Master of Science",
        "degree_short": "M.Sc.",
        "degree_type_id": 16,
        "degree_type_name": "Master of Science",
        "degree_type_short": "M.Sc."
      },
      "org_id": 53666,
      "spo_version": "20903"
    },
    {
      "study_id": "132017042",
      "program_name": "Bioinformatik",
      "program_name_en": "Bioinformatics",
      "degree_program_name": "B.Sc. Bioinformatik",
      "degree_program_name_en": "B.Sc. Bioinformatics",
      "school": {
        "org_id": 51897,
        "org_code": "TUS1000",
        "org_name": "TUM School of Computation, Information and Technology",
        "org_name_en": "TUM School of Computation, Information and Technology",
        "org_url": "https://www.cit.tum.de/",
        "org_type": "TUM School",
        "org_nameshort": "CIT",
        "org_nameshort_en": "CIT",
        "org_email": "info@cit.tum.de",
        "deleted": null,
        "tumonline_url": "https://campus.tum.de/tumonline/wborg.display?PORGNR=51897"
      },
      "program_short": null,
      "program_url": null,
      "program_url_en": null,
      "degree": {
        "degree_id": 17,
        "degree_name": "Bachelor of Science",
        "degree_name_en": "Bachelor of Science",
        "degree_short": "B.Sc.",
        "degree_type_id": 17,
        "degree_type_name": "Bachelor of Science",
        "degree_type_short": "B.Sc."
      },
      "org_id": 53659,
      "spo_version": "20001"
    },
    {
      "study_id": "132017042",
      "program_name": "Bioinformatik",
      "program_name_en": "Bioinformatics",
      "degree_program_name": "B.Sc. Bioinformatik",
      "degree_program_name_en": "B.Sc. Bioinformatics",
      "school": {
        "org_id": 51897,
        "org_code": "TUS1000",
        "org_name": "TUM School of Computation, Information and Technology",
        "org_name_en": "TUM School of Computation, Information and Technology",
        "org_url": "https://www.cit.tum.de/",
        "org_type": "TUM School",
        "org_nameshort": "CIT",
        "org_nameshort_en": "CIT",
        "org_email": "info@cit.tum.de",
        "deleted": null,
        "tumonline_url": "https://campus.tum.de/tumonline/wborg.display?PORGNR=51897"
      },
      "program_short": null,
      "program_url": null,
      "program_url_en": null,
      "degree": {
        "degree_id": 17,
        "degree_name": "Bachelor of Science",
        "degree_name_en": "Bachelor of Science",
        "degree_short": "B.Sc.",
        "degree_type_id": 17,
        "degree_type_name": "Bachelor of Science",
        "degree_type_short": "B.Sc."
      },
      "org_id": 53659,
      "spo_version": "20071"
    },
    {
      "study_id": "132017042",
      "program_name": "Bioinformatik",
      "program_name_en": "Bioinformatics",
      "degree_program_name": "B.Sc. Bioinformatik",
      "degree_program_name_en": "B.Sc. Bioinformatics",
      "school": {
        "org_id": 51897,
        "org_code": "TUS1000",
        "org_name": "TUM School of Computation, Information and Technology",
        "org_name_en": "TUM School of Computation, Information and Technology",
        "org_url": "https://www.cit.tum.de/",
        "org_type": "TUM School",
        "org_nameshort": "CIT",
        "org_nameshort_en": "CIT",
        "org_email": "info@cit.tum.de",
        "deleted": null,
        "tumonline_url": "https://campus.tum.de/tumonline/wborg.display?PORGNR=51897"
      },
      "program_short": null,
      "program_url": null,
      "program_url_en": null,
      "degree": {
        "degree_id": 17,
        "degree_name": "Bachelor of Science",
        "degree_name_en": "Bachelor of Science",
        "degree_short": "B.Sc.",
        "degree_type_id": 17,
        "degree_type_name": "Bachelor of Science",
        "degree_type_short": "B.Sc."
      },
      "org_id": 53659,
      "spo_version": "20131"
    },
    {
      "study_id": "132017042",
      "program_name": "Bioinformatik",
      "program_name_en": "Bioinformatics",
      "degree_program_name": "B.Sc. Bioinformatik",
      "degree_program_name_en": "B.Sc. Bioinformatics",
      "school": {
        "org_id": 51897,
        "org_code": "TUS1000",
        "org_name": "TUM School of Computation, Information and Technology",
        "org_name_en": "TUM School of Computation, Information and Technology",
        "org_url": "https://www.cit.tum.de/",
        "org_type": "TUM School",
        "org_nameshort": "CIT",
        "org_nameshort_en": "CIT",
        "org_email": "info@cit.tum.de",
        "deleted": null,
        "tumonline_url": "https://campus.tum.de/tumonline/wborg.display?PORGNR=51897"
      },
      "program_short": null,
      "program_url": null,
      "program_url_en": null,
      "degree": {
        "degree_id": 17,
        "degree_name": "Bachelor of Science",
        "degree_name_en": "Bachelor of Science",
        "degree_short": "B.Sc.",
        "degree_type_id": 17,
        "degree_type_name": "Bachelor of Science",
        "degree_type_short": "B.Sc."
      },
      "org_id": 53659,
      "spo_version": "20171"
    },
    {
      "study_id": "132017042",
      "program_name": "Bioinformatik",
      "program_name_en": "Bioinformatics",
      "degree_program_name": "B.Sc. Bioinformatik",
      "degree_program_name_en": "B.Sc. Bioinformatics",
      "school": {
        "org_id": 51897,
        "org_code": "TUS1000",
        "org_name": "TUM School of Computation, Information and Technology",
        "org_name_en": "TUM School of Computation, Information and Technology",
        "org_url": "https://www.cit.tum.de/",
        "org_type": "TUM School",
        "org_nameshort": "CIT",
        "org_nameshort_en": "CIT",
        "org_email": "info@cit.tum.de",
        "deleted": null,
        "tumonline_url": "https://campus.tum.de/tumonline/wborg.display?PORGNR=51897"
      },
      "program_short": null,
      "program_url": null,
      "program_url_en": null,
      "degree": {
        "degree_id": 17,
        "degree_name": "Bachelor of Science",
        "degree_name_en": "Bachelor of Science",
        "degree_short": "B.Sc.",
        "degree_type_id": 17,
        "degree_type_name": "Bachelor of Science",
        "degree_type_short": "B.Sc."
      },
      "org_id": 53659,
      "spo_version": "20211"
    },
    {
      "study_id": "1320230070301630",
      "program_name": "Fach an der LMU, Informatik",
      "program_name_en": "subject at LMU, Informatics",
      "degree_program_name": "Fach an der LMU, Informatik",
      "degree_program_name_en": "subject at LMU, Informatics",
      "school": {
        "org_id": 51899,
        "org_code": "TUS5000",
        "org_name": "TUM School of Medicine and Health",
        "org_name_en": "TUM School of Medicine and Health",
        "org_url": null,
        "org_type": "TUM School",
        "org_nameshort": "MH",
        "org_nameshort_en": "MH",
        "org_email": null,
        "deleted": null,
        "tumonline_url": "https://campus.tum.de/tumonline/wborg.display?PORGNR=51899"
      },
      "program_short": null,
      "program_url": null,
      "program_url_en": null,
      "degree": {
        "degree_id": 23,
        "degree_name": "Staatsexamen / Lehramt an Realschulen",
        "degree_name_en": "State examination / teacher training at secondary schools",
        "degree_short": null,
        "degree_type_id": 23,
        "degree_type_name": "Staatsexamen / Lehramt an Realschulen",
        "degree_type_short": null
      },
      "org_id": 55135,
      "spo_version": "0"
    },
    {
      "study_id": "1320230070301630",
      "program_name": "Fach an der LMU, Informatik",
      "program_name_en": "subject at LMU, Informatics",
      "degree_program_name": "Fach an der LMU, Informatik",
      "degree_program_name_en": "subject at LMU, Informatics",
      "school": {
        "org_id": 51899,
        "org_code": "TUS5000",
        "org_name": "TUM School of Medicine and Health",
        "org_name_en": "TUM School of Medicine and Health",
        "org_url": null,
        "org_type": "TUM School",
        "org_nameshort": "MH",
        "org_nameshort_en": "MH",
        "org_email": null,
        "deleted": null,
        "tumonline_url": "https://campus.tum.de/tumonline/wborg.display?PORGNR=51899"
      },
      "program_short": null,
      "program_url": null,
      "program_url_en": null,
      "degree": {
        "degree_id": 23,
        "degree_name": "Staatsexamen / Lehramt an Realschulen",
        "degree_name_en": "State examination / teacher training at secondary schools",
        "degree_short": null,
        "degree_type_id": 23,
        "degree_type_name": "Staatsexamen / Lehramt an Realschulen",
        "degree_type_short": null
      },
      "org_id": 55135,
      "spo_version": "20021"
    },
    {
      "study_id": "1320230070301630",
      "program_name": "Fach an der LMU, Informatik",
      "program_name_en": "subject at LMU, Informatics",
      "degree_program_name": "Fach an der LMU, Informatik",
      "degree_program_name_en": "subject at LMU, Informatics",
      "school": {
        "org_id": 51899,
        "org_code": "TUS5000",
        "org_name": "TUM School of Medicine and Health",
        "org_name_en": "TUM School of Medicine and Health",
        "org_url": null,
        "org_type": "TUM School",
        "org_nameshort": "MH",
        "org_nameshort_en": "MH",
        "org_email": null,
        "deleted": null,
        "tumonline_url": "https://campus.tum.de/tumonline/wborg.display?PORGNR=51899"
      },
      "program_short": null,
      "program_url": null,
      "program_url_en": null,
      "degree": {
        "degree_id": 23,
        "degree_name": "Staatsexamen / Lehramt an Realschulen",
        "degree_name_en": "State examination / teacher training at secondary schools",
        "degree_short": null,
        "degree_type_id": 23,
        "degree_type_name": "Staatsexamen / Lehramt an Realschulen",
        "degree_type_short": null
      },
      "org_id": 55135,
      "spo_version": "20101"
    },
    {
      "study_id": "1320230070301630",
      "program_name": "Fach an der LMU, Informatik",
      "program_name_en": "subject at LMU, Informatics",
      "degree_program_name": "Fach an der LMU, Informatik",
      "degree_program_name_en": "subject at LMU, Informatics",
      "school": {
        "org_id": 51899,
        "org_code": "TUS5000",
        "org_name": "TUM School of Medicine and Health",
        "org_name_en": "TUM School of Medicine and Health",
        "org_url": null,
        "org_type": "TUM School",
        "org_nameshort": "MH",
        "org_nameshort_en": "MH",
        "org_email": null,
        "deleted": null,
        "tumonline_url": "https://campus.tum.de/tumonline/wborg.display?PORGNR=51899"
      },
      "program_short": null,
      "program_url": null,
      "program_url_en": null,
      "degree": {
        "degree_id": 23,
        "degree_name": "Staatsexamen / Lehramt an Realschulen",
        "degree_name_en": "State examination / teacher training at secondary schools",
        "degree_short": null,
        "degree_type_id": 23,
        "degree_type_name": "Staatsexamen / Lehramt an Realschulen",
        "degree_type_short": null
      },
      "org_id": 55135,
      "spo_version": "20181"
    },
    {
      "study_id": "1320230070301630",
      "program_name": "Fach an der LMU, Informatik",
      "program_name_en": "subject at LMU, Informatics",
      "degree_program_name": "Fach an der LMU, Informatik",
      "degree_program_name_en": "subject at LMU, Informatics",
      "school": {
        "org_id": 51899,
        "org_code": "TUS5000",
        "org_name": "TUM School of Medicine and Health",
        "org_name_en": "TUM School of Medicine and Health",
        "org_url": null,
        "org_type": "TUM School",
        "org_nameshort": "MH",
        "org_nameshort_en": "MH",
        "org_email": null,
        "deleted": null,
        "tumonline_url": "https://campus.tum.de/tumonline/wborg.display?PORGNR=51899"
      },
      "program_short": null,
      "program_url": null,
      "program_url_en": null,
      "degree": {
        "degree_id": 23,
        "degree_name": "Staatsexamen / Lehramt an Realschulen",
        "degree_name_en": "State examination / teacher training at secondary schools",
        "degree_short": null,
        "degree_type_id": 23,
        "degree_type_name": "Staatsexamen / Lehramt an Realschulen",
        "degree_type_short": null
      },
      "org_id": 55135,
      "spo_version": "20191"
    },
    {
      "study_id": "1320230070301630",
      "program_name": "Fach an der LMU, Informatik",
      "program_name_en": "subject at LMU, Informatics",
      "degree_program_name": "Fach an der LMU, Informatik",
      "degree_program_name_en": "subject at LMU, Informatics",
      "school": {
        "org_id": 51899,
        "org_code": "TUS5000",
        "org_name": "TUM School of Medicine and Health",
        "org_name_en": "TUM School of Medicine and Health",
        "org_url": null,
        "org_type": "TUM School",
        "org_nameshort": "MH",
        "org_nameshort_en": "MH",
        "org_email": null,
        "deleted": null,
        "tumonline_url": "https://campus.tum.de/tumonline/wborg.display?PORGNR=51899"
      },
      "program_short": null,
      "program_url": null,
      "program_url_en": null,
      "degree": {
        "degree_id": 23,
        "degree_name": "Staatsexamen / Lehramt an Realschulen",
        "degree_name_en": "State examination / teacher training at secondary schools",
        "degree_short": null,
        "degree_type_id": 23,
        "degree_type_name": "Staatsexamen / Lehramt an Realschulen",
        "degree_type_short": null
      },
      "org_id": 55135,
      "spo_version": "20241"
    },
    {
      "study_id": "163005030",
      "program_name": "Informatik",
      "program_name_en": "Informatics",
      "degree_program_name": "Promotionsstudium an der Informatik",
      "degree_program_name_en": "Promotionsstudium at the Informatics",
      "school": {
        "org_id": 51897,
        "org_code": "TUS1000",
        "org_name": "TUM School of Computation, Information and Technology",
        "org_name_en": "TUM School of Computation, Information and Technology",
        "org_url": "https://www.cit.tum.de/",
        "org_type": "TUM School",
        "org_nameshort": "CIT",
        "org_nameshort_en": "CIT",
        "org_email": "info@cit.tum.de",
        "deleted": null,
        "tumonline_url": "https://campus.tum.de/tumonline/wborg.display?PORGNR=51897"
      },
      "program_short": null,
      "program_url": null,
      "program_url_en": null,
      "degree": {
        "degree_id": 5,
        "degree_name": "Teilpromotion",
        "degree_name_en": "Partial doctorate",
        "degree_short": null,
        "degree_type_id": 5,
        "degree_type_name": "Teilpromotion",
        "degree_type_short": null
      },
      "org_id": 53684,
      "spo_version": "0"
    },
    {
      "study_id": "163005042",
      "program_name": "Bioinformatik",
      "program_name_en": "Bioinformatics",
      "degree_program_name": "Promotionsstudium an der Bioinformatik",
      "degree_program_name_en": "Promotionsstudium at the Bioinformatics",
      "school": {
        "org_id": 14189,
        "org_code": "TUINFIN",
        "org_name": "Ehemalige Fakultät für Informatik",
        "org_name_en": "Former TUM Department of Informatics",
        "org_url": "https://www.in.tum.de/",
        "org_type": "Fakultät",
        "org_nameshort": null,
        "org_nameshort_en": null,
        "org_email": null,
        "deleted": null,
        "tumonline_url": "https://campus.tum.de/tumonline/wborg.display?PORGNR=14189"
      },
      "program_short": null,
      "program_url": null,
      "program_url_en": null,
      "degree": {
        "degree_id": 5,
        "degree_name": "Teilpromotion",
        "degree_name_en": "Partial doctorate",
        "degree_short": null,
        "degree_type_id": 5,
        "degree_type_name": "Teilpromotion",
        "degree_type_short": null
      },
      "org_id": 14189,
      "spo_version": "0"
    },
    {
      "_truncated": "30 more items omitted"
    }
  ]
}
